@startuml acep2p-component-diagram

title Acep2p component diagram

component [DID Registry] as DR
component [Bootnode] as B
component [Relay Node] as RN
component [Message Pod] as MP
component [Client] as C

@enduml