{
    "Name": "aceblock-libp2p-demo",
    "Type": "permissioned",
    "Secret": "/key/swarm/psk/1.0.0/\n/base16/\n57876acf1b253f09a3dc115dd66ed3fe377e139dc1018908049c72eeae1bf730",
    "Bootstrap": [
      "/ip4/212.93.226.183/tcp/4041/ipfs/QmVQw3JNgQ7AyXxKnm6Q4JNjntr68A97uUZAWf7AdX5XMS",
      "/ip4/193.138.63.98/tcp/443/ipfs/QmcPya1jwZfy6uLFwSXr7CzpHoq6unBXB14ydBjGr53uxE",
      "/ip4/91.240.216.201/tcp/4041/ipfs/QmcSKqRQuoTDgMAebs9SLTiuLfAuNp8ePnBBJbgdrhDyiR",
      "/ip4/91.240.216.81/tcp/4041/ipfs/QmSAbyKdfMK3YiboAeUsniSjc4S5YiRKegiSW1DGLPVQ4m",
      "/ip4/91.240.216.80/tcp/443/ipfs/QmcUPZe1ar8CbHecKSRJPCro9LvbEX7uPYDafehVBmurx1"
    ]
}
